%YAML 1.1
%TAG !u! tag:unity3d.com,2011:
--- !u!114 &11400000
MonoBehaviour:
  m_ObjectHideFlags: 0
  m_CorrespondingSourceObject: {fileID: 0}
  m_PrefabInstance: {fileID: 0}
  m_PrefabAsset: {fileID: 0}
  m_GameObject: {fileID: 0}
  m_Enabled: 1
  m_EditorHideFlags: 0
  m_GeneratorAsset: {fileID: 0}
  m_Script: {fileID: 11500000, guid: 141eff096a99d434fbab8fc9f401c856, type: 3}
  m_Name: Satelite
  m_EditorClassIdentifier: 
  Icon: {fileID: 21300000, guid: ff7f664fa5f6fd74ab081b07f777bd84, type: 3}
  Prefab: {fileID: 2019559047006489688, guid: 76658d5182c3e1240ba8c46e23d923a2, type: 3}
  Theme: 
  Type: 
  Description: 
  Cost: 2
  Health: 2
  Speed: 0
  RotationSpeed: 0
  DetectRange: 10
  DetectDuration: 5
  AttackPower: 138
  AttackRange: 5
  AttackDelay: 3
  Skills: []
