%YAML 1.1
%TAG !u! tag:unity3d.com,2011:
--- !u!114 &11400000
MonoBehaviour:
  m_ObjectHideFlags: 0
  m_CorrespondingSourceObject: {fileID: 0}
  m_PrefabInstance: {fileID: 0}
  m_PrefabAsset: {fileID: 0}
  m_GameObject: {fileID: 0}
  m_Enabled: 1
  m_EditorHideFlags: 0
  m_Script: {fileID: 11500000, guid: 130b5bab9933d4749bf334f7dccbf3c4, type: 3}
  m_Name: Storming
  m_EditorClassIdentifier: 
  Actions:
  - {fileID: 11400000, guid: f1caa7f7dd48b934da26ce2f31031f6b, type: 2}
  Transitions:
  - Condition: {fileID: 11400000, guid: 674bca1e63ec54440a961afe6cb0177f, type: 2}
    TrueState: {fileID: 11400000, guid: 8cb1a047c8846824182015d61a7db662, type: 2}
    FalseState: {fileID: 11400000, guid: 4dceea20c8b04964cbc204c952fc4cac, type: 2}
  SceneGizmoColor: {r: 0.8117647, g: 0, b: 0.66513044, a: 1}
